…
pols_cleaned
```

    ## # A tibble: 822 × 9
    ##     year month     president gov_gop sen_gop rep_gop gov_dem sen_dem rep_dem
    ##    <int> <chr>     <chr>       <dbl>   <dbl>   <dbl>   <dbl>   <dbl>   <dbl>
    ##  1  1947 January   dem            23      51     253      23      45     198
    ##  2  1947 February  dem            23      51     253      23      45     198
    ##  3  1947 March     dem            23      51     253      23      45     198
    ##  4  1947 April     dem            23      51     253      23      45     198
    ##  5  1947 May       dem            23      51     253      23      45     198
    ##  6  1947 June      dem            23      51     253      23      45     198
    ##  7  1947 July      dem            23      51     253      23      45     198
    ##  8  1947 August    dem            23      51     253      23      45     198
    ##  9  1947 September dem            23      51     253      23      45     198
    ## 10  1947 October   dem            23      51     253      23      45     198
    ## # ℹ 812 more rows
…
  mutate(
    year = case_when(
      year_short <= 49 ~ year_short + 2000,
      year_short >= 50 ~ year_short + 1900,
    ),
    month = month.name[month_num]
  )  |>  
  select(year, month, snp_value = close) |> 
    # arrange by year and month
  arrange(year, month)

snp_cleaned
```

    ## # A tibble: 787 × 3
    ##     year month    snp_value
    ##    <dbl> <chr>        <dbl>
    ##  1  1950 April         18.0
    ##  2  1950 August        18.4
    ##  3  1950 December      20.4
    ##  4  1950 February      17.2
    ##  5  1950 January       17.0
    ##  6  1950 July          17.8
    ##  7  1950 June          17.7
    ##  8  1950 March         17.3
    ##  9  1950 May           18.8
    ## 10  1950 November      19.5
    ## # ℹ 777 more rows
…
unemployment_cleaned
```

    ## # A tibble: 816 × 3
    ##     year month    unemployment
    ##    <dbl> <chr>           <dbl>
    ##  1  1948 April             3.9
    ##  2  1948 August            3.9
    ##  3  1948 December          4  
    ##  4  1948 February          3.8
    ##  5  1948 January           3.4
    ##  6  1948 July              3.6
    ##  7  1948 June              3.6
    ##  8  1948 March             4  
    ##  9  1948 May               3.5
    ## 10  1948 November          3.8
    ## # ℹ 806 more rows

### Merge datasets

We merge `pols` with `snp`, then merge unemployment.

``` r
mergesum_df = pols_cleaned |> 
  left_join(snp_cleaned, by = c("year", "month")) |> 
  left_join(unemployment_cleaned, by = c("year", "month"))

mergesum_df
```

    ## # A tibble: 822 × 11
    ##     year month     president gov_gop sen_gop rep_gop gov_dem sen_dem rep_dem
    ##    <dbl> <chr>     <chr>       <dbl>   <dbl>   <dbl>   <dbl>   <dbl>   <dbl>
    ##  1  1947 January   dem            23      51     253      23      45     198
    ##  2  1947 February  dem            23      51     253      23      45     198
    ##  3  1947 March     dem            23      51     253      23      45     198
    ##  4  1947 April     dem            23      51     253      23      45     198
    ##  5  1947 May       dem            23      51     253      23      45     198
    ##  6  1947 June      dem            23      51     253      23      45     198
    ##  7  1947 July      dem            23      51     253      23      45     198
    ##  8  1947 August    dem            23      51     253      23      45     198
    ##  9  1947 September dem            23      51     253      23      45     198
    ## 10  1947 October   dem            23      51     253      23      45     198
    ## # ℹ 812 more rows
    ## # ℹ 2 more variables: snp_value <dbl>, unemployment <dbl>

``` r
final_dim = dim(mergesum_df)
final_years = range(mergesum_df$year)
final_names = names(mergesum_df)

mergesum_df
```

    ## # A tibble: 822 × 11
    ##     year month     president gov_gop sen_gop rep_gop gov_dem sen_dem rep_dem
    ##    <dbl> <chr>     <chr>       <dbl>   <dbl>   <dbl>   <dbl>   <dbl>   <dbl>
    ##  1  1947 January   dem            23      51     253      23      45     198
    ##  2  1947 February  dem            23      51     253      23      45     198
    ##  3  1947 March     dem            23      51     253      23      45     198
    ##  4  1947 April     dem            23      51     253      23      45     198
    ##  5  1947 May       dem            23      51     253      23      45     198
    ##  6  1947 June      dem            23      51     253      23      45     198
    ##  7  1947 July      dem            23      51     253      23      45     198
    ##  8  1947 August    dem            23      51     253      23      45     198
    ##  9  1947 September dem            23      51     253      23      45     198
    ## 10  1947 October   dem            23      51     253      23      45     198
    ## # ℹ 812 more rows
    ## # ℹ 2 more variables: snp_value <dbl>, unemployment <dbl>
…
